…
dea_res <- lapply(dea_res_list, read_tsv)
names(dea_res) <- str_extract(
  dea_res_list, ".e_.*_dea"
)
dea_res
```

    ## $de_mirna_dea
    ## # A tibble: 1,662 x 11
    ##    Symbol logFC   CI.L   CI.R AveExpr     t  P.Value adj.P.Val     B comparison
    ##    <chr>  <dbl>  <dbl>  <dbl>   <dbl> <dbl>    <dbl>     <dbl> <dbl> <chr>     
    ##  1 hsa-m… -1.51 -2.00  -1.03    3.96  -6.15 3.06e- 9   1.30e-7 10.8  CD vs HC  
    ##  2 hsa-m… -1.49 -2.04  -0.945  -0.721 -5.38 1.76e- 7   5.12e-6  6.71 CD vs HC  
    ##  3 hsa-m… -1.47 -1.90  -1.04    8.67  -6.75 1.07e-10   9.01e-9 14.0  CD vs HC  
    ##  4 hsa-m… -1.38 -1.90  -0.865   0.891 -5.26 3.05e- 7   7.05e-6  6.40 CD vs HC  
    ##  5 hsa-m… -1.34 -1.74  -0.951   0.392 -6.74 1.14e-10   9.01e-9 13.6  CD vs HC  
    ##  6 hsa-m… -1.33 -1.73  -0.922   3.07  -6.45 5.73e-10   2.83e-8 12.4  CD vs HC  
    ##  7 hsa-m… -1.26 -1.63  -0.896   5.62  -6.78 8.86e-11   9.01e-9 14.1  CD vs HC  
    ##  8 hsa-m… -1.25 -1.72  -0.779   4.89  -5.24 3.38e- 7   7.49e-6  6.28 CD vs HC  
    ##  9 hsa-m…  1.22  0.719  1.73    3.44   4.77 3.21e- 6   5.56e-5  4.19 CD vs HC  
    ## 10 hsa-m… -1.12 -1.59  -0.653  -0.679 -4.70 4.23e- 6   6.72e-5  3.91 CD vs HC  
    ## # … with 1,652 more rows, and 1 more variable: dea <chr>
    ## 
    ## $se_mirna_dea
    ## # A tibble: 3,198 x 11
    ##    Symbol logFC   CI.L   CI.R AveExpr      t  P.Value adj.P.Val     B comparison
    ##    <chr>  <dbl>  <dbl>  <dbl>   <dbl>  <dbl>    <dbl>     <dbl> <dbl> <chr>     
    ##  1 hsa-m… -5.12 -5.80  -4.45   -1.20  -15.0  2.91e-34  1.55e-31 66.2  CD vs HC  
    ##  2 hsa-m… -2.45 -3.06  -1.85    4.46   -7.96 1.44e-13  2.56e-11 20.3  CD vs HC  
    ##  3 hsa-m… -1.99 -2.50  -1.49    3.53   -7.72 5.89e-13  6.28e-11 18.9  CD vs HC  
    ##  4 hsa-m… -1.97 -2.53  -1.42    6.19   -7.02 3.72e-11  2.21e- 9 14.8  CD vs HC  
    ##  5 hsa-m… -1.72 -2.42  -1.01    0.411  -4.79 3.35e- 6  3.88e- 5  4.05 CD vs HC  
    ##  6 hsa-m…  1.61  1.16   2.05    1.36    7.15 1.74e-11  1.16e- 9 15.7  CD vs HC  
    ##  7 hsa-m…  1.46  0.913  2.01   -0.790   5.27 3.69e- 7  5.96e- 6  6.24 CD vs HC  
    ##  8 hsa-m… -1.45 -2.02  -0.873   2.08   -4.98 1.43e- 6  1.85e- 5  4.71 CD vs HC  
    ##  9 hsa-m… -1.41 -1.89  -0.928   7.57   -5.77 3.08e- 8  6.57e- 7  8.25 CD vs HC  
    ## 10 hsa-m… -1.40 -1.89  -0.915  -1.92   -5.68 4.91e- 8  9.35e- 7  8.16 CD vs HC  
    ## # … with 3,188 more rows, and 1 more variable: dea <chr>
    ## 
    ## $se_rna_dea
    ## # A tibble: 70,362 x 14
    ##    Probe_Id Array_Address_Id Symbol ENTREZ logFC  CI.L  CI.R AveExpr     t
    ##    <chr>               <dbl> <chr>   <dbl> <dbl> <dbl> <dbl>   <dbl> <dbl>
    ##  1 ILMN_16…          4830541 HBE1   3.05e3  2.62  2.21  3.04   11.6  12.4 
    ##  2 ILMN_16…           240594 ANXA3  3.06e2  2.02  1.60  2.43    8.95  9.63
    ##  3 ILMN_16…          4570725 H3C13  6.54e5  1.95  1.64  2.26    7.25 12.5 
    ##  4 ILMN_23…          3290368 IGFBP1 3.48e3  1.89  1.52  2.27    8.39  9.91
    ##  5 ILMN_17…          1410221 S100A… 6.28e3  1.81  1.46  2.15   11.1  10.3 
    ##  6 ILMN_17…            70167 LY96   2.36e4  1.77  1.41  2.12    9.14  9.83
    ##  7 ILMN_21…          2260576 COX7B  1.35e3  1.74  1.33  2.15    7.04  8.35
    ##  8 ILMN_18…          1230164 MTRNR… 1.00e8  1.66  1.41  1.91    7.83 13.1 
    ##  9 ILMN_17…          4260484 COMMD6 1.71e5  1.64  1.18  2.10    8.45  7.05
    ## 10 ILMN_21…          3310161 TDP2   5.16e4  1.47  1.04  1.90    6.94  6.73
    ## # … with 70,352 more rows, and 5 more variables: P.Value <dbl>,
    ## #   adj.P.Val <dbl>, B <dbl>, comparison <chr>, dea <chr>
…
